Simulation
…
Recast using maps

simulate_n_regressions = function(n_runs = 100, n, beta0 = 2, beta1 = 3) {
  
  rerun(n_runs, sim_regression(n, beta0, beta1)) %>% 
    bind_rows()
  
}

simulate_n_regressions(100, 30, 2, 3)
## # A tibble: 100 x 2
##    beta0_hat beta1_hat
##        <dbl>     <dbl>
##  1      2.53      2.61
##  2      2.56      2.75
##  3      1.84      3.05
##  4      2.00      2.93
##  5      1.72      3.11
##  6      1.85      3.13
##  7      1.93      3.13
##  8      2.35      2.66
##  9      2.10      2.77
## 10      1.93      3.13
## # ... with 90 more rows
simulate_n_regressions(150, 30, 20, -3)
## # A tibble: 150 x 2
##    beta0_hat beta1_hat
##        <dbl>     <dbl>
##  1      20.1     -3.04
##  2      20.2     -3.03
##  3      20.1     -3.15
##  4      20.2     -3.14
##  5      19.8     -2.94
##  6      20.4     -3.27
##  7      19.4     -2.58
##  8      19.9     -2.94
##  9      19.6     -2.60
## 10      19.8     -2.76
## # ... with 140 more rows

map(n_list, ~simulate_n_regressions(n_runs = 100, n = .x, beta0 = 2, beta1 = 3))
## $n_30
## # A tibble: 100 x 2
##    beta0_hat beta1_hat
##        <dbl>     <dbl>
##  1      2.47      2.90
##  2      2.09      3.26
##  3      2.04      2.70
##  4      2.04      3.04
##  5      2.13      2.94
##  6      2.28      2.87
##  7      2.29      2.84
##  8      2.46      2.88
##  9      2.21      3.01
## 10      1.90      3.41
## # ... with 90 more rows
## 
## $n_60
## # A tibble: 100 x 2
##    beta0_hat beta1_hat
##        <dbl>     <dbl>
##  1      2.06      3.07
##  2      1.69      3.19
##  3      2.11      3.04
##  4      2.14      2.78
##  5      1.98      3.02
##  6      2.28      2.97
##  7      2.23      2.91
##  8      1.76      3.01
##  9      2.21      2.90
## 10      2.01      2.89
## # ... with 90 more rows
## 
## $n_120
## # A tibble: 100 x 2
##    beta0_hat beta1_hat
##        <dbl>     <dbl>
##  1      1.95      3.01
##  2      2.02      3.06
##  3      1.97      2.96
##  4      2.02      2.95
##  5      1.69      3.17
##  6      2.35      2.92
##  7      1.79      3.25
##  8      2.05      3.06
##  9      2.10      2.97
## 10      1.76      3.14
## # ... with 90 more rows
## 
## $n_240
## # A tibble: 100 x 2
##    beta0_hat beta1_hat
##        <dbl>     <dbl>
##  1      1.98      2.97
##  2      1.97      2.98
##  3      1.98      3.06
##  4      2.04      3.03
##  5      1.84      3.11
##  6      2.01      2.99
##  7      2.01      2.88
##  8      1.94      3.04
##  9      2.02      2.95
## 10      2.01      2.95
## # ... with 90 more rows
…
